RISC/simulation/qsim/pipeline.msim.vcd
$comment
	File created using the following command:
		vcd file pipeline.msim.vcd -direction
$end
$date
	Thu Jun 02 00:53:09 2022
$end
$version
	ModelSim Version 10.5b
$end
$timescale
	1ps
$end

$scope module pipeline_vhd_vec_tst $end
$var wire 1 ! ACCA_D [15] $end
$var wire 1 " ACCA_D [14] $end
$var wire 1 # ACCA_D [13] $end
$var wire 1 $ ACCA_D [12] $end
$var wire 1 % ACCA_D [11] $end
$var wire 1 & ACCA_D [10] $end
$var wire 1 ' ACCA_D [9] $end
$var wire 1 ( ACCA_D [8] $end
$var wire 1 ) ACCA_D [7] $end
$var wire 1 * ACCA_D [6] $end
$var wire 1 + ACCA_D [5] $end
$var wire 1 , ACCA_D [4] $end
$var wire 1 - ACCA_D [3] $end
$var wire 1 . ACCA_D [2] $end
$var wire 1 / ACCA_D [1] $end
$var wire 1 0 ACCA_D [0] $end
$var wire 1 1 ACCB_D [15] $end
$var wire 1 2 ACCB_D [14] $end
$var wire 1 3 ACCB_D [13] $end
$var wire 1 4 ACCB_D [12] $end
$var wire 1 5 ACCB_D [11] $end
$var wire 1 6 ACCB_D [10] $end
$var wire 1 7 ACCB_D [9] $end
$var wire 1 8 ACCB_D [8] $end
$var wire 1 9 ACCB_D [7] $end
$var wire 1 : ACCB_D [6] $end
$var wire 1 ; ACCB_D [5] $end
$var wire 1 < ACCB_D [4] $end
$var wire 1 = ACCB_D [3] $end
$var wire 1 > ACCB_D [2] $end
$var wire 1 ? ACCB_D [1] $end
$var wire 1 @ ACCB_D [0] $end
$var wire 1 A AUX_D [15] $end
$var wire 1 B AUX_D [14] $end
$var wire 1 C AUX_D [13] $end
$var wire 1 D AUX_D [12] $end
$var wire 1 E AUX_D [11] $end
$var wire 1 F AUX_D [10] $end
$var wire 1 G AUX_D [9] $end
$var wire 1 H AUX_D [8] $end
$var wire 1 I AUX_D [7] $end
$var wire 1 J AUX_D [6] $end
$var wire 1 K AUX_D [5] $end
$var wire 1 L AUX_D [4] $end
$var wire 1 M AUX_D [3] $end
$var wire 1 N AUX_D [2] $end
$var wire 1 O AUX_D [1] $end
$var wire 1 P AUX_D [0] $end
$var wire 1 Q c $end
$var wire 1 R h $end
$var wire 1 S i $end
$var wire 1 T IX_D [15] $end
$var wire 1 U IX_D [14] $end
$var wire 1 V IX_D [13] $end
$var wire 1 W IX_D [12] $end
$var wire 1 X IX_D [11] $end
$var wire 1 Y IX_D [10] $end
$var wire 1 Z IX_D [9] $end
$var wire 1 [ IX_D [8] $end
$var wire 1 \ IX_D [7] $end
$var wire 1 ] IX_D [6] $end
$var wire 1 ^ IX_D [5] $end
$var wire 1 _ IX_D [4] $end
$var wire 1 ` IX_D [3] $end
$var wire 1 a IX_D [2] $end
$var wire 1 b IX_D [1] $end
$var wire 1 c IX_D [0] $end
$var wire 1 d IY_D [15] $end
$var wire 1 e IY_D [14] $end
$var wire 1 f IY_D [13] $end
$var wire 1 g IY_D [12] $end
$var wire 1 h IY_D [11] $end
$var wire 1 i IY_D [10] $end
$var wire 1 j IY_D [9] $end
$var wire 1 k IY_D [8] $end
$var wire 1 l IY_D [7] $end
$var wire 1 m IY_D [6] $end
$var wire 1 n IY_D [5] $end
$var wire 1 o IY_D [4] $end
$var wire 1 p IY_D [3] $end
$var wire 1 q IY_D [2] $end
$var wire 1 r IY_D [1] $end
$var wire 1 s IY_D [0] $end
$var wire 1 t n $end
$var wire 1 u RELOJ $end
$var wire 1 v RESET $end
$var wire 1 w SP_D [15] $end
$var wire 1 x SP_D [14] $end
$var wire 1 y SP_D [13] $end
$var wire 1 z SP_D [12] $end
$var wire 1 { SP_D [11] $end
$var wire 1 | SP_D [10] $end
$var wire 1 } SP_D [9] $end
$var wire 1 ~ SP_D [8] $end
$var wire 1 !! SP_D [7] $end
$var wire 1 "! SP_D [6] $end
$var wire 1 #! SP_D [5] $end
$var wire 1 $! SP_D [4] $end
$var wire 1 %! SP_D [3] $end
$var wire 1 &! SP_D [2] $end
$var wire 1 '! SP_D [1] $end
$var wire 1 (! SP_D [0] $end
$var wire 1 )! v $end
$var wire 1 *! z $end

$scope module i1 $end
$var wire 1 +! gnd $end
$var wire 1 ,! vcc $end
$var wire 1 -! unknown $end
$var wire 1 .! devoe $end
$var wire 1 /! devclrn $end
$var wire 1 0! devpor $end
$var wire 1 1! ww_devoe $end
$var wire 1 2! ww_devclrn $end
$var wire 1 3! ww_devpor $end
$var wire 1 4! ww_n $end
$var wire 1 5! ww_RELOJ $end
$var wire 1 6! ww_RESET $end
$var wire 1 7! ww_z $end
$var wire 1 8! ww_v $end
$var wire 1 9! ww_c $end
$var wire 1 :! ww_h $end
$var wire 1 ;! ww_i $end
$var wire 1 <! ww_ACCA_D [15] $end
$var wire 1 =! ww_ACCA_D [14] $end
$var wire 1 >! ww_ACCA_D [13] $end
$var wire 1 ?! ww_ACCA_D [12] $end
$var wire 1 @! ww_ACCA_D [11] $end
$var wire 1 A! ww_ACCA_D [10] $end
$var wire 1 B! ww_ACCA_D [9] $end
$var wire 1 C! ww_ACCA_D [8] $end
$var wire 1 D! ww_ACCA_D [7] $end
$var wire 1 E! ww_ACCA_D [6] $end
$var wire 1 F! ww_ACCA_D [5] $end
$var wire 1 G! ww_ACCA_D [4] $end
$var wire 1 H! ww_ACCA_D [3] $end
$var wire 1 I! ww_ACCA_D [2] $end
$var wire 1 J! ww_ACCA_D [1] $end
$var wire 1 K! ww_ACCA_D [0] $end
$var wire 1 L! ww_ACCB_D [15] $end
$var wire 1 M! ww_ACCB_D [14] $end
$var wire 1 N! ww_ACCB_D [13] $end
$var wire 1 O! ww_ACCB_D [12] $end
$var wire 1 P! ww_ACCB_D [11] $end
$var wire 1 Q! ww_ACCB_D [10] $end
$var wire 1 R! ww_ACCB_D [9] $end
$var wire 1 S! ww_ACCB_D [8] $end
$var wire 1 T! ww_ACCB_D [7] $end
$var wire 1 U! ww_ACCB_D [6] $end
$var wire 1 V! ww_ACCB_D [5] $end
$var wire 1 W! ww_ACCB_D [4] $end
$var wire 1 X! ww_ACCB_D [3] $end
$var wire 1 Y! ww_ACCB_D [2] $end
$var wire 1 Z! ww_ACCB_D [1] $end
$var wire 1 [! ww_ACCB_D [0] $end
$var wire 1 \! ww_AUX_D [15] $end
$var wire 1 ]! ww_AUX_D [14] $end
$var wire 1 ^! ww_AUX_D [13] $end
$var wire 1 _! ww_AUX_D [12] $end
$var wire 1 `! ww_AUX_D [11] $end
$var wire 1 a! ww_AUX_D [10] $end
$var wire 1 b! ww_AUX_D [9] $end
$var wire 1 c! ww_AUX_D [8] $end
$var wire 1 d! ww_AUX_D [7] $end
$var wire 1 e! ww_AUX_D [6] $end
$var wire 1 f! ww_AUX_D [5] $end
$var wire 1 g! ww_AUX_D [4] $end
$var wire 1 h! ww_AUX_D [3] $end
$var wire 1 i! ww_AUX_D [2] $end
$var wire 1 j! ww_AUX_D [1] $end
$var wire 1 k! ww_AUX_D [0] $end
$var wire 1 l! ww_IX_D [15] $end
$var wire 1 m! ww_IX_D [14] $end
$var wire 1 n! ww_IX_D [13] $end
$var wire 1 o! ww_IX_D [12] $end
$var wire 1 p! ww_IX_D [11] $end
$var wire 1 q! ww_IX_D [10] $end
$var wire 1 r! ww_IX_D [9] $end
$var wire 1 s! ww_IX_D [8] $end
$var wire 1 t! ww_IX_D [7] $end
$var wire 1 u! ww_IX_D [6] $end
$var wire 1 v! ww_IX_D [5] $end
$var wire 1 w! ww_IX_D [4] $end
$var wire 1 x! ww_IX_D [3] $end
$var wire 1 y! ww_IX_D [2] $end
$var wire 1 z! ww_IX_D [1] $end
$var wire 1 {! ww_IX_D [0] $end
$var wire 1 |! ww_IY_D [15] $end
$var wire 1 }! ww_IY_D [14] $end
$var wire 1 ~! ww_IY_D [13] $end
$var wire 1 !" ww_IY_D [12] $end
$var wire 1 "" ww_IY_D [11] $end
$var wire 1 #" ww_IY_D [10] $end
$var wire 1 $" ww_IY_D [9] $end
$var wire 1 %" ww_IY_D [8] $end
$var wire 1 &" ww_IY_D [7] $end
$var wire 1 '" ww_IY_D [6] $end
$var wire 1 (" ww_IY_D [5] $end
$var wire 1 )" ww_IY_D [4] $end
$var wire 1 *" ww_IY_D [3] $end
$var wire 1 +" ww_IY_D [2] $end
$var wire 1 ," ww_IY_D [1] $end
$var wire 1 -" ww_IY_D [0] $end
$var wire 1 ." ww_SP_D [15] $end
$var wire 1 /" ww_SP_D [14] $end
$var wire 1 0" ww_SP_D [13] $end
$var wire 1 1" ww_SP_D [12] $end
$var wire 1 2" ww_SP_D [11] $end
$var wire 1 3" ww_SP_D [10] $end
$var wire 1 4" ww_SP_D [9] $end
$var wire 1 5" ww_SP_D [8] $end
$var wire 1 6" ww_SP_D [7] $end
$var wire 1 7" ww_SP_D [6] $end
$var wire 1 8" ww_SP_D [5] $end
$var wire 1 9" ww_SP_D [4] $end
$var wire 1 :" ww_SP_D [3] $end
$var wire 1 ;" ww_SP_D [2] $end
$var wire 1 <" ww_SP_D [1] $end
$var wire 1 =" ww_SP_D [0] $end
$var wire 1 >" \inst1|mem_rtl_0|auto_generated|ram_block1a16_PORTAADDR_bus\ [5] $end
$var wire 1 ?" \inst1|mem_rtl_0|auto_generated|ram_block1a16_PORTAADDR_bus\ [4] $end
$var wire 1 @" \inst1|mem_rtl_0|auto_generated|ram_block1a16_PORTAADDR_bus\ [3] $end
$var wire 1 A" \inst1|mem_rtl_0|auto_generated|ram_block1a16_PORTAADDR_bus\ [2] $end
$var wire 1 B" \inst1|mem_rtl_0|auto_generated|ram_block1a16_PORTAADDR_bus\ [1] $end
$var wire 1 C" \inst1|mem_rtl_0|auto_generated|ram_block1a16_PORTAADDR_bus\ [0] $end
$var wire 1 D" \inst1|mem_rtl_0|auto_generated|ram_block1a16_PORTADATAOUT_bus\ [17] $end
$var wire 1 E" \inst1|mem_rtl_0|auto_generated|ram_block1a16_PORTADATAOUT_bus\ [16] $end
$var wire 1 F" \inst1|mem_rtl_0|auto_generated|ram_block1a16_PORTADATAOUT_bus\ [15] $end
$var wire 1 G" \inst1|mem_rtl_0|auto_generated|ram_block1a16_PORTADATAOUT_bus\ [14] $end
$var wire 1 H" \inst1|mem_rtl_0|auto_generated|ram_block1a16_PORTADATAOUT_bus\ [13] $end
$var wire 1 I" \inst1|mem_rtl_0|auto_generated|ram_block1a16_PORTADATAOUT_bus\ [12] $end
$var wire 1 J" \inst1|mem_rtl_0|auto_generated|ram_block1a16_PORTADATAOUT_bus\ [11] $end
$var wire 1 K" \inst1|mem_rtl_0|auto_generated|ram_block1a16_PORTADATAOUT_bus\ [10] $end
$var wire 1 L" \inst1|mem_rtl_0|auto_generated|ram_block1a16_PORTADATAOUT_bus\ [9] $end
$var wire 1 M" \inst1|mem_rtl_0|auto_generated|ram_block1a16_PORTADATAOUT_bus\ [8] $end
$var wire 1 N" \inst1|mem_rtl_0|auto_generated|ram_block1a16_PORTADATAOUT_bus\ [7] $end
$var wire 1 O" \inst1|mem_rtl_0|auto_generated|ram_block1a16_PORTADATAOUT_bus\ [6] $end
$var wire 1 P" \inst1|mem_rtl_0|auto_generated|ram_block1a16_PORTADATAOUT_bus\ [5] $end
$var wire 1 Q" \inst1|mem_rtl_0|auto_generated|ram_block1a16_PORTADATAOUT_bus\ [4] $end
$var wire 1 R" \inst1|mem_rtl_0|auto_generated|ram_block1a16_PORTADATAOUT_bus\ [3] $end
$var wire 1 S" \inst1|mem_rtl_0|auto_generated|ram_block1a16_PORTADATAOUT_bus\ [2] $end
$var wire 1 T" \inst1|mem_rtl_0|auto_generated|ram_block1a16_PORTADATAOUT_bus\ [1] $end
$var wire 1 U" \inst1|mem_rtl_0|auto_generated|ram_block1a16_PORTADATAOUT_bus\ [0] $end
$var wire 1 V" \RESET~inputclkctrl_INCLK_bus\ [3] $end
$var wire 1 W" \RESET~inputclkctrl_INCLK_bus\ [2] $end
$var wire 1 X" \RESET~inputclkctrl_INCLK_bus\ [1] $end
$var wire 1 Y" \RESET~inputclkctrl_INCLK_bus\ [0] $end
$var wire 1 Z" \RELOJ~inputclkctrl_INCLK_bus\ [3] $end
$var wire 1 [" \RELOJ~inputclkctrl_INCLK_bus\ [2] $end
$var wire 1 \" \RELOJ~inputclkctrl_INCLK_bus\ [1] $end
$var wire 1 ]" \RELOJ~inputclkctrl_INCLK_bus\ [0] $end
$var wire 1 ^" \n~output_o\ $end
$var wire 1 _" \z~output_o\ $end
$var wire 1 `" \v~output_o\ $end
$var wire 1 a" \c~output_o\ $end
$var wire 1 b" \h~output_o\ $end
$var wire 1 c" \i~output_o\ $end
$var wire 1 d" \ACCA_D[15]~output_o\ $end
$var wire 1 e" \ACCA_D[14]~output_o\ $end
$var wire 1 f" \ACCA_D[13]~output_o\ $end
$var wire 1 g" \ACCA_D[12]~output_o\ $end
$var wire 1 h" \ACCA_D[11]~output_o\ $end
$var wire 1 i" \ACCA_D[10]~output_o\ $end
$var wire 1 j" \ACCA_D[9]~output_o\ $end
$var wire 1 k" \ACCA_D[8]~output_o\ $end
$var wire 1 l" \ACCA_D[7]~output_o\ $end
$var wire 1 m" \ACCA_D[6]~output_o\ $end
$var wire 1 n" \ACCA_D[5]~output_o\ $end
$var wire 1 o" \ACCA_D[4]~output_o\ $end
$var wire 1 p" \ACCA_D[3]~output_o\ $end
$var wire 1 q" \ACCA_D[2]~output_o\ $end
$var wire 1 r" \ACCA_D[1]~output_o\ $end
$var wire 1 s" \ACCA_D[0]~output_o\ $end
$var wire 1 t" \ACCB_D[15]~output_o\ $end
$var wire 1 u" \ACCB_D[14]~output_o\ $end
$var wire 1 v" \ACCB_D[13]~output_o\ $end
$var wire 1 w" \ACCB_D[12]~output_o\ $end
$var wire 1 x" \ACCB_D[11]~output_o\ $end
$var wire 1 y" \ACCB_D[10]~output_o\ $end
$var wire 1 z" \ACCB_D[9]~output_o\ $end
$var wire 1 {" \ACCB_D[8]~output_o\ $end
$var wire 1 |" \ACCB_D[7]~output_o\ $end
$var wire 1 }" \ACCB_D[6]~output_o\ $end
$var wire 1 ~" \ACCB_D[5]~output_o\ $end
$var wire 1 !# \ACCB_D[4]~output_o\ $end
$var wire 1 "# \ACCB_D[3]~output_o\ $end
$var wire 1 ## \ACCB_D[2]~output_o\ $end
$var wire 1 $# \ACCB_D[1]~output_o\ $end
$var wire 1 %# \ACCB_D[0]~output_o\ $end
$var wire 1 &# \AUX_D[15]~output_o\ $end
$var wire 1 '# \AUX_D[14]~output_o\ $end
$var wire 1 (# \AUX_D[13]~output_o\ $end
$var wire 1 )# \AUX_D[12]~output_o\ $end
$var wire 1 *# \AUX_D[11]~output_o\ $end
$var wire 1 +# \AUX_D[10]~output_o\ $end
$var wire 1 ,# \AUX_D[9]~output_o\ $end
$var wire 1 -# \AUX_D[8]~output_o\ $end
$var wire 1 .# \AUX_D[7]~output_o\ $end
$var wire 1 /# \AUX_D[6]~output_o\ $end
$var wire 1 0# \AUX_D[5]~output_o\ $end
$var wire 1 1# \AUX_D[4]~output_o\ $end
$var wire 1 2# \AUX_D[3]~output_o\ $end
$var wire 1 3# \AUX_D[2]~output_o\ $end
$var wire 1 4# \AUX_D[1]~output_o\ $end
$var wire 1 5# \AUX_D[0]~output_o\ $end
$var wire 1 6# \IX_D[15]~output_o\ $end
$var wire 1 7# \IX_D[14]~output_o\ $end
$var wire 1 8# \IX_D[13]~output_o\ $end
$var wire 1 9# \IX_D[12]~output_o\ $end
$var wire 1 :# \IX_D[11]~output_o\ $end
$var wire 1 ;# \IX_D[10]~output_o\ $end
$var wire 1 <# \IX_D[9]~output_o\ $end
$var wire 1 =# \IX_D[8]~output_o\ $end
$var wire 1 ># \IX_D[7]~output_o\ $end
$var wire 1 ?# \IX_D[6]~output_o\ $end
$var wire 1 @# \IX_D[5]~output_o\ $end
$var wire 1 A# \IX_D[4]~output_o\ $end
$var wire 1 B# \IX_D[3]~output_o\ $end
$var wire 1 C# \IX_D[2]~output_o\ $end
$var wire 1 D# \IX_D[1]~output_o\ $end
$var wire 1 E# \IX_D[0]~output_o\ $end
$var wire 1 F# \IY_D[15]~output_o\ $end
$var wire 1 G# \IY_D[14]~output_o\ $end
$var wire 1 H# \IY_D[13]~output_o\ $end
$var wire 1 I# \IY_D[12]~output_o\ $end
$var wire 1 J# \IY_D[11]~output_o\ $end
$var wire 1 K# \IY_D[10]~output_o\ $end
$var wire 1 L# \IY_D[9]~output_o\ $end
$var wire 1 M# \IY_D[8]~output_o\ $end
$var wire 1 N# \IY_D[7]~output_o\ $end
$var wire 1 O# \IY_D[6]~output_o\ $end
$var wire 1 P# \IY_D[5]~output_o\ $end
$var wire 1 Q# \IY_D[4]~output_o\ $end
$var wire 1 R# \IY_D[3]~output_o\ $end
$var wire 1 S# \IY_D[2]~output_o\ $end
$var wire 1 T# \IY_D[1]~output_o\ $end
$var wire 1 U# \IY_D[0]~output_o\ $end
$var wire 1 V# \SP_D[15]~output_o\ $end
$var wire 1 W# \SP_D[14]~output_o\ $end
$var wire 1 X# \SP_D[13]~output_o\ $end
$var wire 1 Y# \SP_D[12]~output_o\ $end
$var wire 1 Z# \SP_D[11]~output_o\ $end
$var wire 1 [# \SP_D[10]~output_o\ $end
$var wire 1 \# \SP_D[9]~output_o\ $end
$var wire 1 ]# \SP_D[8]~output_o\ $end
$var wire 1 ^# \SP_D[7]~output_o\ $end
$var wire 1 _# \SP_D[6]~output_o\ $end
$var wire 1 `# \SP_D[5]~output_o\ $end
$var wire 1 a# \SP_D[4]~output_o\ $end
$var wire 1 b# \SP_D[3]~output_o\ $end
$var wire 1 c# \SP_D[2]~output_o\ $end
$var wire 1 d# \SP_D[1]~output_o\ $end
$var wire 1 e# \SP_D[0]~output_o\ $end
$var wire 1 f# \RELOJ~input_o\ $end
$var wire 1 g# \RELOJ~inputclkctrl_outclk\ $end
$var wire 1 h# \inst34|valor_interno[0]~15_combout\ $end
$var wire 1 i# \RESET~input_o\ $end
$var wire 1 j# \RESET~inputclkctrl_outclk\ $end
$var wire 1 k# \inst34|valor_interno[1]~5_combout\ $end
$var wire 1 l# \inst34|valor_interno[1]~6\ $end
$var wire 1 m# \inst34|valor_interno[2]~7_combout\ $end
$var wire 1 n# \inst34|valor_interno[2]~8\ $end
$var wire 1 o# \inst34|valor_interno[3]~9_combout\ $end
$var wire 1 p# \inst34|valor_interno[3]~10\ $end
$var wire 1 q# \inst34|valor_interno[4]~11_combout\ $end
$var wire 1 r# \inst34|valor_interno[4]~12\ $end
$var wire 1 s# \inst34|valor_interno[5]~13_combout\ $end
$var wire 1 t# \inst1|mem_rtl_0|auto_generated|ram_block1a20\ $end
$var wire 1 u# \inst1|mem_rtl_0|auto_generated|ram_block1a21\ $end
$var wire 1 v# \inst1|mem_rtl_0|auto_generated|ram_block1a22\ $end
$var wire 1 w# \inst1|mem_rtl_0|auto_generated|ram_block1a19\ $end
$var wire 1 x# \inst206|Equal0~1_combout\ $end
$var wire 1 y# \inst1|mem_rtl_0|auto_generated|ram_block1a31\ $end
$var wire 1 z# \inst1|mem~0feeder_combout\ $end
$var wire 1 {# \inst1|mem~0_q\ $end
$var wire 1 |# \inst1|mem_rtl_0|auto_generated|ram_block1a17\ $end
$var wire 1 }# \inst1|mem_rtl_0|auto_generated|ram_block1a18\ $end
$var wire 1 ~# \inst1|mem_rtl_0|auto_generated|ram_block1a16~portadataout\ $end
$var wire 1 !$ \inst206|Equal0~0_combout\ $end
$var wire 1 "$ \inst1|mem_rtl_0|auto_generated|ram_block1a28\ $end
$var wire 1 #$ \inst1|mem_rtl_0|auto_generated|ram_block1a27\ $end
$var wire 1 $$ \inst1|mem_rtl_0|auto_generated|ram_block1a30\ $end
$var wire 1 %$ \inst1|mem_rtl_0|auto_generated|ram_block1a29\ $end
$var wire 1 &$ \inst206|Equal0~3_combout\ $end
$var wire 1 '$ \inst1|mem_rtl_0|auto_generated|ram_block1a25\ $end
$var wire 1 ($ \inst1|mem_rtl_0|auto_generated|ram_block1a23\ $end
$var wire 1 )$ \inst1|mem_rtl_0|auto_generated|ram_block1a24\ $end
$var wire 1 *$ \inst1|mem_rtl_0|auto_generated|ram_block1a26\ $end
$var wire 1 +$ \inst206|Equal0~2_combout\ $end
$var wire 1 ,$ \inst206|Equal0~4_combout\ $end
$var wire 1 -$ \inst206|Equal0~5_combout\ $end
$var wire 1 .$ \inst16|selc~q\ $end
$var wire 1 /$ \inst|zi~0_combout\ $end
$var wire 1 0$ \inst|zi~q\ $end
$var wire 1 1$ \inst102|valor_interno~feeder_combout\ $end
$var wire 1 2$ \inst102|valor_interno~q\ $end
$var wire 1 3$ \inst34|valor_interno\ [15] $end
$var wire 1 4$ \inst34|valor_interno\ [14] $end
$var wire 1 5$ \inst34|valor_interno\ [13] $end
$var wire 1 6$ \inst34|valor_interno\ [12] $end
$var wire 1 7$ \inst34|valor_interno\ [11] $end
$var wire 1 8$ \inst34|valor_interno\ [10] $end
$var wire 1 9$ \inst34|valor_interno\ [9] $end
$var wire 1 :$ \inst34|valor_interno\ [8] $end
$var wire 1 ;$ \inst34|valor_interno\ [7] $end
$var wire 1 <$ \inst34|valor_interno\ [6] $end
$var wire 1 =$ \inst34|valor_interno\ [5] $end
$var wire 1 >$ \inst34|valor_interno\ [4] $end
$var wire 1 ?$ \inst34|valor_interno\ [3] $end
$var wire 1 @$ \inst34|valor_interno\ [2] $end
$var wire 1 A$ \inst34|valor_interno\ [1] $end
$var wire 1 B$ \inst34|valor_interno\ [0] $end
$var wire 1 C$ \ALT_INV_RELOJ~inputclkctrl_outclk\ $end
$upscope $end
$upscope $end
$enddefinitions $end
#0
$dumpvars
0Q
0R
0S
0t
0u
1v
0)!
0*!
0+!
1,!
x-!
1.!
1/!
10!
11!
12!
13!
04!
05!
16!
07!
08!
09!
0:!
0;!
0^"
0_"
0`"
0a"
0b"
0c"
0d"
0e"
0f"
0g"
0h"
0i"
0j"
0k"
0l"
0m"
0n"
0o"
0p"
0q"
0r"
0s"
0t"
0u"
0v"
0w"
0x"
0y"
0z"
0{"
0|"
0}"
0~"
0!#
0"#
0##
0$#
0%#
0&#
0'#
0(#
0)#
0*#
0+#
0,#
0-#
0.#
0/#
00#
01#
02#
03#
04#
05#
06#
07#
08#
09#
0:#
0;#
0<#
0=#
0>#
0?#
0@#
0A#
0B#
0C#
0D#
0E#
0F#
0G#
0H#
0I#
0J#
0K#
0L#
0M#
0N#
0O#
0P#
0Q#
0R#
0S#
0T#
0U#
0V#
0W#
0X#
0Y#
0Z#
0[#
0\#
0]#
0^#
0_#
0`#
0a#
0b#
0c#
0d#
0e#
0f#
0g#
1h#
1i#
1j#
0k#
0l#
0m#
1n#
0o#
0p#
0q#
1r#
0s#
0t#
0u#
0v#
0w#
0x#
0y#
1z#
0{#
0|#
0}#
0~#
0!$
0"$
0#$
0$$
0%$
1&$
0'$
0($
0)$
0*$
0+$
0,$
0-$
0.$
0/$
00$
01$
02$
1C$
01
02
03
04
05
06
07
08
09
0:
0;
0<
0=
0>
0?
0@
0A
0B
0C
0D
0E
0F
0G
0H
0I
0J
0K
0L
0M
0N
0O
0P
0T
0U
0V
0W
0X
0Y
0Z
0[
0\
0]
0^
0_
0`
0a
0b
0c
0d
0e
0f
0g
0h
0i
0j
0k
0l
0m
0n
0o
0p
0q
0r
0s
0w
0x
0y
0z
0{
0|
0}
0~
0!!
0"!
0#!
0$!
0%!
0&!
0'!
0(!
0>"
0?"
0@"
0A"
0B"
0C"
0<!
0=!
0>!
0?!
0@!
0A!
0B!
0C!
0D!
0E!
0F!
0G!
0H!
0I!
0J!
0K!
0L!
0M!
0N!
0O!
0P!
0Q!
0R!
0S!
0T!
0U!
0V!
0W!
0X!
0Y!
0Z!
0[!
0\!
0]!
0^!
0_!
0`!
0a!
0b!
0c!
0d!
0e!
0f!
0g!
0h!
0i!
0j!
0k!
0l!
0m!
0n!
0o!
0p!
0q!
0r!
0s!
0t!
0u!
0v!
0w!
0x!
0y!
0z!
0{!
0|!
0}!
0~!
0!"
0""
0#"
0$"
0%"
0&"
0'"
0("
0)"
0*"
0+"
0,"
0-"
0."
0/"
00"
01"
02"
03"
04"
05"
06"
07"
08"
09"
0:"
0;"
0<"
0="
0D"
0E"
0F"
0G"
0H"
0I"
0J"
0K"
0L"
0M"
0N"
0O"
0P"
0Q"
0R"
0S"
0T"
0U"
x3$
x4$
x5$
x6$
x7$
x8$
x9$
x:$
x;$
x<$
0=$
0>$
0?$
0@$
0A$
0B$
1Z"
1["
1\"
0]"
1V"
1W"
1X"
1Y"
0!
0"
0#
0$
0%
0&
0'
0(
0)
0*
0+
0,
0-
0.
0/
00
$end
#5000
1u
15!
1f#
1]"
1g#
0C$
1{#
#5500
1T"
1S"
1O"
1N"
1|#
1}#
1v#
1($
1+$
1x#
1!$
1,$
1-$
#10000
0u
05!
0f#
0]"
0g#
1C$
1B$
1C"
0h#
1k#
#15000
1u
15!
1f#
1]"
1g#
0C$
1.$
1/$
#15500
0O"
0v#
0x#
0-$
#20000
0u
05!
0f#
0]"
0g#
1C$
0B$
1A$
10$
0C"
1B"
11$
1h#
#25000
1u
15!
1f#
1]"
1g#
0C$
0.$
12$
1_"
17!
1*!
#25500
1U"
0S"
1R"
1Q"
0N"
1~#
0}#
1w#
1t#
0($
0+$
0!$
0,$
#30000
0u
05!
0f#
0]"
0g#
1C$
1B$
1C"
0h#
0k#
1l#
1m#
#35000
1u
15!
1f#
1]"
1g#
0C$
#35500
0U"
1S"
1P"
1O"
0~#
1}#
1u#
1v#
1!$
#40000
0u
05!
0f#
0]"
0g#
1C$
0B$
0A$
1@$
0C"
0B"
1A"
0m#
0n#
1h#
0l#
1m#
1n#
1o#
0o#
#45000
1u
15!
1f#
1]"
1g#
0C$
#45500
0T"
0S"
0R"
0Q"
0P"
0O"
0|#
0}#
0w#
0t#
0u#
0v#
0!$
#50000
0u
05!
0f#
0]"
0g#
1C$
1B$
1C"
0h#
1k#
#55000
1u
15!
1f#
1]"
1g#
0C$
#60000
0u
05!
0f#
0]"
0g#
1C$
0B$
1A$
0C"
1B"
1h#
#65000
1u
15!
1f#
1]"
1g#
0C$
#70000
0u
05!
0f#
0]"
0g#
1C$
1B$
1C"
0h#
0k#
1l#
0m#
0n#
1o#
#75000
1u
15!
1f#
1]"
1g#
0C$
#80000
0u
05!
0f#
0]"
0g#
1C$
0B$
0A$
0@$
1?$
0C"
0B"
0A"
1@"
0o#
1p#
1m#
1n#
1h#
0l#
0m#
1o#
0p#
1q#
0q#
#85000
1u
15!
1f#
1]"
1g#
0C$
#90000
0u
05!
0f#
0]"
0g#
1C$
1B$
1C"
0h#
1k#
#95000
1u
15!
1f#
1]"
1g#
0C$
#100000
0u
05!
0f#
0]"
0g#
1C$
0B$
1A$
0C"
1B"
1h#
#105000
1u
15!
1f#
1]"
1g#
0C$
#110000
0u
05!
0f#
0]"
0g#
1C$
1B$
1C"
0h#
0k#
1l#
1m#
#115000
1u
15!
1f#
1]"
1g#
0C$
#120000
0u
05!
0f#
0]"
0g#
1C$
0B$
0A$
1@$
0C"
0B"
1A"
0m#
0n#
1h#
0l#
1m#
1n#
0o#
1p#
1q#
1o#
0p#
0q#
#125000
1u
15!
1f#
1]"
1g#
0C$
#130000
0u
05!
0f#
0]"
0g#
1C$
1B$
1C"
0h#
1k#
#135000
1u
15!
1f#
1]"
1g#
0C$
#140000
0u
05!
0f#
0]"
0g#
1C$
0B$
1A$
0C"
1B"
1h#
#145000
1u
15!
1f#
1]"
1g#
0C$
#150000
0u
05!
0f#
0]"
0g#
1C$
1B$
1C"
0h#
0k#
1l#
0m#
0n#
0o#
1p#
1q#
#155000
1u
15!
1f#
1]"
1g#
0C$
#160000
0u
05!
0f#
0]"
0g#
1C$
0B$
0A$
0@$
0?$
1>$
0C"
0B"
0A"
0@"
1?"
0q#
0r#
1o#
0p#
1m#
1n#
1h#
0l#
0m#
0o#
1q#
1r#
1s#
0s#
#165000
1u
15!
1f#
1]"
1g#
0C$
#170000
0u
05!
0f#
0]"
0g#
1C$
1B$
1C"
0h#
1k#
#175000
1u
15!
1f#
1]"
1g#
0C$
#180000
0u
05!
0f#
0]"
0g#
1C$
0B$
1A$
0C"
1B"
1h#
#185000
1u
15!
1f#
1]"
1g#
0C$
#190000
0u
05!
0f#
0]"
0g#
1C$
1B$
1C"
0h#
0k#
1l#
1m#
#195000
1u
15!
1f#
1]"
1g#
0C$
#200000
0u
05!
0f#
0]"
0g#
1C$
0B$
0A$
1@$
0C"
0B"
1A"
0m#
0n#
1h#
0l#
1m#
1n#
1o#
0o#
#205000
1u
15!
1f#
1]"
1g#
0C$
#210000
0u
05!
0f#
0]"
0g#
1C$
1B$
1C"
0h#
1k#
#215000
1u
15!
1f#
1]"
1g#
0C$
#220000
0u
05!
0f#
0]"
0g#
1C$
0B$
1A$
0C"
1B"
1h#
#225000
1u
15!
1f#
1]"
1g#
0C$
#230000
0u
05!
0f#
0]"
0g#
1C$
1B$
1C"
0h#
0k#
1l#
0m#
0n#
1o#
#235000
1u
15!
1f#
1]"
1g#
0C$
#240000
0u
05!
0f#
0]"
0g#
1C$
0B$
0A$
0@$
1?$
0C"
0B"
0A"
1@"
0o#
1p#
1m#
1n#
1h#
0l#
0m#
1o#
0p#
0q#
0r#
1s#
1q#
1r#
0s#
#245000
1u
15!
1f#
1]"
1g#
0C$
#250000
0u
05!
0f#
0]"
0g#
1C$
1B$
1C"
0h#
1k#
#255000
1u
15!
1f#
1]"
1g#
0C$
#260000
0u
05!
0f#
0]"
0g#
1C$
0B$
1A$
0C"
1B"
1h#
#265000
1u
15!
1f#
1]"
1g#
0C$
